{
    "httpResponse":200,
    "responseCode":"RSP_000",
    "responseMessage":"Operación exitosa.",
    "exceptionMessage":"Operación exitosa.",
    "responseObject":{
        "lineasLibres":[
            {
                "cuenta":"92883093",
                "ciclo":"20",
                "region":"R09",
                "numero":"5580215056",
                "chip":null,
                "imei":null,
                "responsable":null,
                "idContacto":"848C3420-1EAC-4DC3-BCBE-D304AB1C4730",
                "nombreContacto":"Elia Rivera"
            },
            {
                "cuenta":"11973700",
                "ciclo":"20",
                "region":"R01",
                "numero":"6645204337",
                "chip":null,
                "imei":null,
                "responsable":null,
                "idContacto":null,
                "nombreContacto":null
            },
            {
                "cuenta":"11973701",
                "ciclo":"20",
                "region":"R01",
                "numero":"6645204342",
                "chip":null,
                "imei":null,
                "responsable":null,
                "idContacto":null,
                "nombreContacto":null
            },
            {
                "cuenta":"11973705",
                "ciclo":"20",
                "region":"R01",
                "numero":"6645204542",
                "chip":null,
                "imei":null,
                "responsable":null,
                "idContacto":null,
                "nombreContacto":null
            },
            {
                "cuenta":"11973702",
                "ciclo":"20",
                "region":"R01",
                "numero":"6645204552",
                "chip":null,
                "imei":null,
                "responsable":null,
                "idContacto":null,
                "nombreContacto":null
            },
            {
                "cuenta":"11973703",
                "ciclo":"20",
                "region":"R01",
                "numero":"6645204602",
                "chip":null,
                "imei":null,
                "responsable":null,
                "idContacto":null,
                "nombreContacto":null
            },
            {
                "cuenta":"11973706",
                "ciclo":"20",
                "region":"R01",
                "numero":"6645204657",
                "chip":null,
                "imei":null,
                "responsable":null,
                "idContacto":null,
                "nombreContacto":null
            },
            {
                "cuenta":"11973708",
                "ciclo":"20",
                "region":"R01",
                "numero":"6645204682",
                "chip":null,
                "imei":null,
                "responsable":null,
                "idContacto":null,
                "nombreContacto":null
            },
            {
                "cuenta":"11973709",
                "ciclo":"20",
                "region":"R01",
                "numero":"6645204687",
                "chip":null,
                "imei":null,
                "responsable":null,
                "idContacto":null,
                "nombreContacto":null
            },
            {
                "cuenta":"11973710",
                "ciclo":"20",
                "region":"R01",
                "numero":"6645204692",
                "chip":null,
                "imei":null,
                "responsable":null,
                "idContacto":"B35F7978-99BA-4397-AF5B-4F8D91E0A690",
                "nombreContacto":"Irving Medina"
            }
        ],
        "pagina":{
            "page":1,
            "totalPages":3,
            "totalRows":27
        }
    }
}
